0 101 40 55
0 100 31 48
0 102 136 151
0 99 174 190
0 102 50 72
0 103 103 131
0 97 139 172
0 102 7 24
0 99 37 58
0 99 133 153
0 100 49 63
0 99 150 164
0 97 184 200
0 101 54 74
0 96 64 78
0 97 154 174
0 98 190 210
0 101 193 209
0 99 106 135
0 102 140 167
0 99 146 169
0 103 161 175
0 102 83 110
0 106 192 212
0 105 65 93
0 101 88 120
0 102 21 45
0 94 3 17
0 102 8 23
0 102 26 47
0 101 109 132
1 102 180 195
1 100 177 193
1 100 132 152
1 102 154 171
1 98 143 159
1 102 109 128
1 97 83 101
1 100 170 198
1 96 134 162
1 97 134 160
1 103 45 69
1 100 118 145
1 102 86 102
1 99 123 142
1 98 92 109
1 101 20 32
1 100 44 60
1 100 136 152
1 102 97 114
1 99 1 25
1 102 66 84
1 98 133 157
1 98 13 31
1 102 179 198
1 100 105 125
1 100 121 140
1 100 174 193
1 97 35 51
1 100 130 149
1 100 35 67
1 101 89 106
1 98 121 142
1 102 86 108
2 98 154 174
2 102 82 93
2 101 66 86
2 100 32 41
2 96 43 52
2 99 126 140
2 98 180 200
2 101 183 197
2 102 86 109
2 100 12 34
2 100 131 158
2 98 206 222
2 102 57 82
2 99 2 23
2 98 122 153
2 98 148 161
2 102 16 38
2 101 158 170
2 98 20 48
2 98 30 54
2 102 74 87
2 101 156 175
2 97 14 35
2 96 6 29
2 99 140 166
2 100 176 199
2 100 84 107
2 99 148 176
3 99 97 117
3 102 137 148
3 98 52 56
3 99 6 30
3 99 20 40
3 98 5 19
3 98 8 19
3 98 8 25
3 97 93 102
3 96 4 25
3 101 53 86
3 101 2 28
3 96 114 125
3 98 137 156
3 98 27 45
3 99 19 29
3 99 100 115
3 103 84 104
3 100 81 97
3 100 89 111
3 104 7 37
3 99 9 31
3 104 133 146
3 99 85 114
3 102 15 27
3 101 109 131
3 100 120 140
3 96 59 81
3 99 41 67
3 98 120 142
3 97 5 39
3 97 73 105
4 102 60 82
4 98 6 32
4 100 24 47
4 100 79 103
4 100 108 131
4 99 8 25
4 103 12 26
4 98 98 126
4 98 30 54
4 102 88 112
4 99 125 144
4 96 108 125
4 101 2 19
4 101 135 158
4 101 56 69
4 102 112 131
4 97 13 26
4 102 36 48
4 104 127 154
4 100 82 98
4 102 37 54
4 100 15 31
4 99 7 24
4 99 4 17
4 101 71 93
4 102 160 175
4 96 73 95
4 102 11 38
4 101 33 48
4 98 121 136
4 100 73 96
4 99 109 132
4 99 28 56
4 99 128 149
4 98 47 69
5 98 62 86
5 100 168 183
5 100 106 117
5 98 61 85
5 101 147 175
5 101 4 26
5 101 165 182
5 100 5 21
5 97 35 62
5 100 184 197
5 101 78 90
5 100 83 105
5 99 78 104
5 101 46 64
5 101 182 203
5 101 56 69
5 99 47 67
5 99 73 95
5 102 85 109
5 96 185 198
5 99 78 98
5 102 100 122
5 95 184 189
5 99 178 197
5 98 12 29
5 100 79 111
6 99 80 107
6 100 30 46
6 99 174 188
6 103 172 186
6 99 7 29
6 101 27 40
6 100 37 63
6 101 94 121
6 98 120 139
6 99 44 68
6 98 35 52
6 103 62 84
6 103 8 17
6 98 121 136
6 101 161 176
6 101 113 140
6 100 16 35
6 99 84 101
6 100 131 145
6 96 90 114
6 102 42 64
6 97 115 147
6 102 170 188
6 102 14 30
6 101 148 163
6 100 150 169
6 100 149 174
6 98 106 125
7 99 44 69
7 100 103 122
7 99 156 171
7 100 102 119
7 101 72 103
7 98 62 79
7 100 119 143
7 100 19 41
7 102 175 190
7 102 135 150
7 100 61 84
7 100 91 116
7 99 98 113
7 100 163 184
7 100 2 16
7 99 93 110
7 102 34 49
7 102 53 66
7 99 56 71
7 103 112 132
7 99 23 39
7 100 162 173
7 95 89 109
7 99 85 97
7 100 7 19
7 99 57 78
8 100 94 122
8 102 134 150
8 99 69 92
8 98 117 135
8 101 84 90
8 100 78 90
8 100 115 134
8 99 36 60
8 100 78 105
8 104 61 74
8 100 61 85
8 97 58 75
8 100 37 60
8 98 138 162
8 100 115 126
8 100 32 52
8 100 80 103
8 101 4 16
8 101 59 77
8 100 66 90
8 103 58 80
8 99 88 105
8 99 34 59
8 98 12 38
8 103 91 110
8 102 8 26
8 98 62 72
9 96 18 43
9 103 29 50
9 101 78 95
9 99 81 103
9 98 43 51
9 96 87 107
9 101 38 59
9 101 9 27
9 100 14 33
9 97 134 163
9 100 125 147
9 98 66 89
9 99 40 56
9 100 117 136
9 99 100 128
9 100 83 102
9 100 99 127
9 103 15 28
9 102 78 99
9 103 139 158
9 98 103 112
9 101 52 74
9 98 137 161
9 100 84 112
9 102 99 133
9 98 130 150
9 100 152 171
9 100 104 126
9 102 79 87
9 99 132 152
9 100 67 77
9 97 32 43
9 99 1 15
9 101 153 169
10 100 55 78
10 101 89 107
10 103 176 194
10 99 33 67
10 98 159 173
10 98 35 49
10 98 33 47
10 97 130 143
10 101 76 85
10 102 73 102
10 102 30 52
10 101 7 28
10 102 157 189
10 102 177 198
10 100 41 63
10 103 141 150
10 101 126 147
10 100 102 118
10 99 45 69
10 99 56 70
10 99 141 152
10 99 113 143
10 102 113 131
10 103 134 150
10 101 41 56
10 95 17 48
10 99 54 73
10 105 146 168
10 106 180 199
11 102 104 125
11 101 174 198
11 100 171 187
11 99 195 207
11 97 193 214
11 97 148 168
11 98 95 108
11 101 137 150
11 97 198 224
11 96 144 164
11 101 58 78
11 101 153 171
11 100 31 56
11 100 171 190
11 96 127 153
11 101 123 147
11 99 34 59
11 97 111 132
11 98 162 198
11 99 2 19
11 98 101 120
11 101 132 157
11 102 211 230
11 100 41 65
11 99 42 63
11 101 33 48
11 99 204 217
11 100 170 183
11 103 137 159
11 102 0 24
11 100 87 113
11 100 47 64
12 99 36 60
12 102 117 140
12 98 156 181
12 99 21 47
12 100 62 77
12 97 109 135
12 100 138 161
12 104 103 115
12 100 53 68
12 97 143 162
12 98 7 15
12 101 23 44
12 100 46 68
12 99 37 63
12 100 26 50
12 100 54 74
12 100 4 17
12 98 158 188
12 97 143 163
12 102 43 59
12 98 8 35
12 101 50 59
12 96 110 124
12 100 40 53
12 100 71 95
12 100 88 109
12 101 27 51
13 99 22 38
13 97 125 142
13 101 153 162
13 101 89 102
13 100 43 59
13 102 111 134
13 101 51 80
13 98 14 30
13 99 117 134
13 99 10 27
13 99 44 66
13 102 99 116
13 100 73 84
13 105 57 82
13 98 94 106
13 101 140 161
13 98 63 89
13 101 109 135
13 102 20 39
13 102 23 49
13 97 137 152
13 101 138 158
13 99 122 135
13 102 102 122
14 101 112 134
14 100 117 136
14 100 22 43
14 100 100 123
14 98 32 55
14 101 42 58
14 99 119 131
14 103 145 154
14 100 177 187
14 98 139 157
14 98 59 91
14 99 109 124
14 101 18 37
14 100 168 182
14 103 112 125
14 103 138 141
14 103 127 146
14 101 65 84
14 100 81 107
14 103 19 37
14 99 68 93
14 101 56 67
14 96 86 99
14 98 168 192
14 99 31 52
14 102 89 108
14 100 157 184
14 101 42 64
14 101 108 128
14 99 150 175
14 101 56 72
15 101 74 90
15 100 63 84
15 100 91 116
15 102 70 85
15 100 109 111
15 100 104 128
15 102 192 206
15 98 26 49
15 100 187 192
15 102 187 208
15 104 149 169
15 99 82 93
15 104 66 84
15 100 5 36
15 99 83 108
15 99 14 30
15 102 161 166
15 105 153 192
15 98 164 186
15 101 59 85
15 99 102 113
15 101 50 67
15 97 107 130
15 97 83 102
15 101 169 193
15 101 125 136
15 100 35 47
15 99 156 173
16 103 11 38
16 101 25 45
16 101 17 39
16 99 85 104
16 99 159 190
16 99 62 79
16 98 168 190
16 99 98 121
16 100 31 42
16 98 74 100
16 104 61 80
16 99 108 141
16 100 174 197
16 103 30 50
16 100 39 53
16 99 51 76
16 102 22 42
16 100 89 114
16 101 20 41
16 102 175 190
16 102 150 177
16 101 111 132
16 101 38 63
16 98 36 67
16 100 33 51
16 104 152 172
16 95 140 162
17 99 170 181
17 102 118 140
17 101 72 91
17 102 59 77
17 101 13 42
17 99 131 151
17 97 145 162
17 97 89 104
17 100 99 119
17 98 151 170
17 99 140 162
17 101 96 104
17 100 4 35
17 101 18 36
17 98 54 66
17 103 107 126
17 101 39 56
17 100 23 47
17 100 0 19
17 99 144 167
17 100 35 44
17 100 181 192
17 101 116 141
17 98 75 93
17 98 139 153
17 100 114 128
17 98 57 80
17 98 117 138
17 100 131 145
17 101 29 48
18 103 65 81
18 101 30 54
18 101 74 88
18 100 81 96
18 104 32 56
18 103 84 102
18 101 97 117
18 97 133 168
18 101 98 124
18 103 41 57
18 98 113 128
18 101 41 54
18 98 50 79
18 96 115 136
18 99 80 109
18 104 102 133
18 100 64 86
18 101 151 168
18 101 38 57
18 98 135 158
18 102 132 164
18 99 47 60
18 101 108 128
18 99 18 47
18 99 41 64
18 99 70 86
18 102 129 146
18 98 15 36
18 103 137 158
18 100 115 137
18 98 106 127
18 105 8 25
18 102 98 117
18 100 45 61
19 101 149 177
19 101 9 28
19 100 126 146
19 102 130 132
19 102 64 84
19 101 6 30
19 100 129 147
19 99 90 115
19 98 146 174
19 101 56 74
19 104 87 114
19 99 116 143
19 99 115 129
19 100 32 49
19 101 45 57
19 99 65 95
19 95 10 27
19 98 78 99
19 98 152 178
19 101 77 109
19 99 10 31
19 98 5 29
19 102 12 26
19 98 62 84
19 103 76 100
19 98 168 186
19 98 89 108
19 101 64 81
19 98 84 111
19 103 0 24
19 104 103 124
20 99 68 92
20 98 47 73
20 103 118 140
20 96 74 94
20 101 182 198
20 101 106 129
20 98 123 143
20 99 9 29
20 98 26 52
20 100 165 179
20 101 49 82
20 100 172 181
20 102 7 20
20 99 130 150
20 100 130 146
20 103 190 207
20 99 0 22
20 101 16 36
20 100 20 49
20 96 22 28
20 97 48 68
20 101 55 79
20 101 102 119
20 103 187 210
20 102 71 85
20 100 103 122
20 99 144 154
20 101 38 53
20 100 84 108
20 100 87 108
20 102 122 137
21 99 120 141
21 106 177 195
21 99 109 143
21 100 208 222
21 98 158 178
21 98 103 117
21 101 207 217
21 100 199 223
21 100 6 24
21 102 85 108
21 97 197 214
21 102 85 102
21 100 7 27
21 100 173 189
21 98 59 88
21 97 90 103
21 99 49 66
21 98 52 76
21 102 86 107
21 100 21 51
21 98 72 83
21 102 189 214
21 103 196 221
21 100 76 94
21 101 66 84
21 101 155 169
21 104 37 56
22 99 108 124
22 100 4 20
22 100 113 123
22 102 85 102
22 97 144 175
22 101 8 19
22 101 62 87
22 101 17 38
22 104 105 135
22 100 153 171
22 98 170 189
22 100 16 29
22 101 117 129
22 102 24 49
22 96 171 184
22 102 170 193
22 98 9 30
22 102 36 48
22 102 147 169
22 100 50 70
22 100 86 94
22 101 125 154
22 98 179 200
22 98 101 116
22 101 55 82
22 99 83 92
22 99 104 123
22 100 180 191
23 103 114 138
23 102 8 31
23 102 22 33
23 98 13 28
23 105 88 109
23 98 151 176
23 100 145 160
23 100 31 56
23 97 103 119
23 104 153 175
23 100 29 60
23 102 65 89
23 99 135 162
23 101 27 43
23 100 135 152
23 98 91 113
23 102 131 156
23 103 12 26
23 105 148 168
23 100 7 19
23 100 123 147
23 102 38 51
23 97 84 109
23 99 71 94
23 98 122 139
23 98 18 44
23 100 79 87
23 105 21 44
23 103 34 46
24 103 139 152
24 98 18 46
24 103 91 115
24 103 8 22
24 103 83 100
24 100 75 88
24 99 66 101
24 102 17 39
24 99 4 30
24 99 21 49
24 99 12 26
24 100 17 41
24 100 105 126
24 103 15 42
24 101 15 37
24 103 88 101
24 102 42 48
24 97 18 31
24 101 63 79
24 101 23 43
24 103 114 129
24 104 136 147
24 100 138 146
24 99 97 118
24 104 61 77
24 100 3 22
24 102 16 23
24 99 59 81
24 100 94 112
24 100 102 126
24 100 132 153
25 99 31 51
25 102 119 141
25 101 36 52
25 101 86 99
25 102 34 58
25 99 183 194
25 100 137 152
25 102 85 111
25 102 12 40
25 99 156 179
25 100 86 103
25 101 45 58
25 100 0 28
25 100 160 167
25 101 20 37
25 102 67 92
25 102 70 82
25 103 163 185
25 97 3 33
25 102 88 110
25 96 4 28
25 100 0 17
25 103 4 16
25 96 114 132
25 97 34 50
25 100 90 113
25 100 15 34
25 98 70 90
25 97 75 97
25 99 91 122
25 101 72 99
26 103 46 61
26 99 140 168
26 99 153 177
26 101 166 184
26 102 154 183
26 100 38 55
26 100 133 157
26 101 54 69
26 100 49 62
26 99 153 164
26 99 149 171
26 101 46 65
26 100 76 90
26 99 7 24
26 102 82 96
26 97 58 79
26 103 127 146
26 97 129 155
26 103 120 147
26 102 85 99
26 100 102 124
26 100 193 197
26 100 174 188
26 104 128 152
26 99 2 30
26 100 141 158
26 102 118 145
26 100 174 208
26 100 0 21
26 100 63 82
26 101 6 14
26 96 94 110
26 100 76 94
27 99 47 65
27 103 83 107
27 97 134 154
27 100 47 71
27 99 167 182
27 96 115 138
27 99 119 137
27 103 63 92
27 93 135 155
27 101 111 124
27 101 62 77
27 97 0 32
27 101 154 171
27 98 3 24
27 97 82 102
27 103 133 154
27 101 47 60
27 100 148 166
27 98 95 109
27 104 110 131
27 98 48 59
27 101 143 161
27 101 103 130
27 98 21 35
27 98 4 30
27 100 138 145
27 97 118 139
27 99 138 159
27 101 45 52
27 102 132 140
27 98 173 185
27 101 135 159
27 101 59 81
27 101 39 50
27 97 44 81
27 102 81 96
28 98 49 74
28 99 100 118
28 98 58 71
28 101 11 38
28 99 79 96
28 101 109 119
28 100 179 203
28 104 159 178
28 98 100 113
28 101 67 86
28 101 28 50
28 100 16 39
28 104 146 163
28 101 148 174
28 99 197 214
28 97 5 20
28 100 146 178
28 97 50 84
28 100 9 23
28 101 42 66
28 99 4 19
28 99 150 169
28 101 6 20
28 100 194 201
28 105 197 212
28 100 102 120
28 101 18 33
28 101 76 92
28 103 176 206
28 102 84 113
29 102 134 153
29 101 7 24
29 102 27 49
29 100 64 90
29 99 96 120
29 101 92 112
29 101 27 43
29 103 66 88
29 100 108 120
29 100 163 183
29 99 12 28
29 98 68 87
29 98 180 197
29 99 92 114
29 97 75 93
29 98 192 222
29 101 155 176
29 94 79 89
29 101 201 220
29 100 90 104
29 100 1 24
29 99 134 149
29 98 199 211
29 101 159 177
29 98 145 178
29 102 210 217
29 100 125 147
29 102 29 63
29 97 120 141
29 100 116 138
29 102 41 54
29 98 62 86
29 98 58 79
30 100 193 211
30 99 72 108
30 99 71 85
30 99 38 59
30 100 33 62
30 101 175 197
30 102 118 126
30 103 76 98
30 95 107 131
30 97 49 64
30 103 63 85
30 96 146 166
30 103 183 210
30 100 128 159
30 98 195 211
30 105 205 225
30 101 30 51
30 100 193 214
30 98 132 157
30 100 169 187
30 103 100 122
30 98 171 190
30 100 162 177
30 99 163 186
30 99 104 121
30 101 45 54
30 100 190 215
30 102 99 123
30 103 26 45
30 101 173 190
31 96 96 117
31 101 171 182
31 99 98 131
31 99 38 56
31 103 27 49
31 97 171 199
31 98 61 78
31 97 141 155
31 102 164 186
31 100 97 123
31 101 50 82
31 102 85 94
31 100 4 23
31 100 123 149
31 103 196 221
31 97 52 78
31 99 15 31
31 102 97 125
31 99 144 166
31 100 96 117
31 98 55 70
31 102 191 218
31 100 24 44
31 99 211 227
31 98 56 67
31 102 156 171
31 103 1 17
31 100 181 198
31 99 200 224
31 98 0 23
31 103 166 183
31 97 214 232
32 100 75 90
32 101 41 62
32 98 102 109
32 103 79 95
32 97 164 177
32 98 78 99
32 99 4 28
32 101 72 89
32 96 140 163
32 102 11 29
32 100 135 160
32 98 87 108
32 102 15 36
32 98 88 118
32 100 124 142
32 99 77 99
32 99 111 120
32 101 160 178
32 99 58 82
32 97 124 146
32 100 48 63
32 101 165 181
32 98 146 168
32 99 39 55
32 99 166 183
32 102 32 52
32 102 5 23
32 100 92 104
32 102 0 8
32 100 24 46
33 99 78 96
33 97 159 174
33 98 63 84
33 102 124 152
33 100 25 42
33 97 76 94
33 104 24 40
33 102 132 155
33 102 86 109
33 102 45 69
33 102 0 22
33 101 33 53
33 99 76 89
33 100 165 179
33 96 93 113
33 99 105 129
33 103 102 129
33 101 137 156
33 100 97 110
33 98 99 119
33 97 32 63
33 102 96 112
33 98 140 153
33 101 114 120
33 102 134 156
33 96 155 164
33 100 116 124
33 100 9 31
34 98 108 118
34 101 0 15
34 99 169 192
34 98 30 54
34 102 116 135
34 100 133 166
34 101 156 185
34 101 63 92
34 102 12 31
34 101 110 140
34 98 87 102
34 100 150 180
34 98 76 90
34 100 120 140
34 99 83 99
34 99 124 151
34 101 72 87
34 97 71 83
34 100 144 152
34 103 102 120
34 99 45 70
34 101 58 86
34 99 62 93
34 100 42 67
34 101 15 28
34 99 91 107
34 101 23 46
34 103 23 60
34 98 6 18
34 98 109 123
34 103 88 108
34 100 4 25
34 102 134 160
34 101 97 118
34 102 91 113
35 99 9 30
35 97 48 64
35 102 136 161
35 102 63 81
35 101 105 122
35 99 121 141
35 103 164 182
35 97 182 193
35 99 18 51
35 100 99 128
35 98 141 164
35 97 7 31
35 102 31 61
35 102 88 107
35 98 86 111
35 101 9 24
35 104 118 132
35 102 56 82
35 98 94 113
35 97 90 107
35 98 107 121
35 101 159 186
35 101 89 108
35 98 49 79
36 102 2 26
36 102 138 166
36 100 151 175
36 99 62 74
36 100 145 167
36 101 147 172
36 101 30 56
36 102 117 133
36 105 51 77
36 101 158 172
36 99 78 97
36 101 114 127
36 100 63 96
36 97 71 103
36 97 23 44
36 99 132 151
36 101 88 111
36 100 104 120
36 98 77 90
36 103 82 95
36 99 21 38
36 101 127 149
36 98 86 112
36 100 66 81
36 101 22 49
36 101 87 114
36 101 148 165
36 99 41 65
36 102 120 138
36 98 116 136
36 103 28 43
37 98 141 171
37 101 185 195
37 100 14 36
37 100 119 144
37 100 176 195
37 99 91 108
37 99 99 118
37 102 184 206
37 98 41 69
37 104 79 92
37 101 50 79
37 102 128 150
37 101 129 142
37 100 70 90
37 100 79 101
37 101 90 120
37 100 104 117
37 101 135 158
37 99 147 167
37 98 9 31
37 100 64 87
37 103 170 177
37 101 16 31
37 103 82 102
37 103 135 148
37 98 124 139
37 97 168 193
37 99 7 28
37 100 13 26
37 97 56 78
37 103 97 107
37 100 34 48
37 101 187 204
38 103 9 38
38 99 129 154
38 96 84 104
38 98 92 111
38 100 15 36
38 99 9 30
38 98 13 32
38 99 129 150
38 106 48 53
38 105 127 134
38 98 14 45
38 102 23 51
38 104 84 105
38 103 82 93
38 99 50 69
38 101 115 126
38 99 106 123
38 95 120 136
38 102 77 110
38 101 50 69
38 104 106 129
38 96 44 69
38 97 77 89
38 98 160 181
38 103 18 39
38 101 107 139
38 101 47 71
38 100 114 142
39 98 122 144
39 101 136 150
39 98 20 37
39 100 114 135
39 102 53 74
39 101 102 120
39 100 45 61
39 103 147 157
39 103 194 215
39 103 13 32
39 100 122 148
39 104 9 25
39 98 18 31
39 101 198 212
39 101 197 214
39 103 28 52
39 101 118 134
39 101 125 151
39 98 105 126
39 99 116 139
39 100 61 85
39 102 176 194
39 98 186 197
39 102 141 155
39 103 153 170
39 101 26 63
39 101 176 199
39 97 99 118
39 102 49 71
39 103 17 36
39 102 18 29
40 99 53 66
40 102 148 174
40 99 154 169
40 101 148 170
40 100 35 54
40 100 50 74
40 100 118 140
40 107 79 98
40 99 163 180
40 99 152 172
40 97 47 67
40 98 79 110
40 102 110 140
40 99 122 148
40 99 6 17
40 98 167 194
40 102 159 183
40 99 103 125
40 99 2 20
40 102 146 170
40 97 26 40
40 97 91 111
40 101 84 109
41 100 61 89
41 98 64 85
41 98 86 107
41 100 34 55
41 103 187 206
41 99 102 114
41 103 205 213
41 100 200 221
41 98 89 125
41 100 206 218
41 103 106 118
41 96 63 75
41 99 37 55
41 107 162 180
41 97 170 189
41 102 55 74
41 97 2 17
41 100 53 78
41 104 78 94
41 101 120 150
41 98 109 134
41 100 78 98
41 98 180 196
41 100 96 121
41 100 42 68
41 98 98 110
41 98 172 190
41 103 146 171
41 100 6 25
42 96 46 62
42 99 7 33
42 97 89 129
42 97 60 74
42 101 90 108
42 100 67 95
42 102 37 54
42 96 142 171
42 98 146 164
42 99 88 103
42 101 41 61
42 100 55 75
42 101 141 173
42 99 151 173
42 97 122 147
42 97 68 75
42 101 69 87
42 101 34 57
42 99 104 133
42 98 7 21
42 98 118 134
42 102 6 15
42 98 2 21
42 101 120 135
42 101 101 122
42 99 142 168
43 99 180 204
43 99 115 135
43 100 147 166
43 100 47 55
43 99 164 187
43 102 118 145
43 101 24 37
43 96 130 164
43 98 7 26
43 104 172 181
43 100 191 203
43 101 35 54
43 100 77 97
43 99 25 48
43 102 166 184
43 100 13 41
43 99 132 151
43 98 191 214
43 98 94 124
43 103 197 217
43 97 124 148
43 97 117 131
43 100 92 114
43 103 72 92
43 95 193 213
43 99 99 129
43 100 12 28
43 104 92 111
44 99 85 108
44 102 158 186
44 100 56 73
44 102 22 36
44 96 155 178
44 101 16 36
44 98 117 137
44 101 98 125
44 101 176 191
44 99 87 103
44 98 133 155
44 100 44 65
44 99 156 170
44 99 116 141
44 101 42 70
44 100 112 137
44 99 32 43
44 101 155 179
44 100 146 168
44 105 127 146
44 101 116 145
44 97 43 64
44 100 127 151
44 106 20 40
44 102 111 124
44 98 70 95
44 98 122 150
44 100 115 131
44 99 43 58
44 103 7 27
44 99 125 128
45 100 51 77
45 102 42 63
45 103 23 35
45 101 53 74
45 102 30 42
45 96 15 35
45 103 159 175
45 98 139 155
45 101 170 188
45 99 54 67
45 101 73 85
45 100 103 120
45 98 107 131
45 101 157 170
45 98 184 196
45 99 6 32
45 100 133 145
45 97 133 146
45 102 39 60
45 97 74 89
45 102 44 60
45 102 56 68
45 103 19 44
45 100 140 158
45 104 33 52
45 101 78 105
45 103 64 91
45 97 43 61
45 99 80 100
46 101 64 78
46 99 123 140
46 101 165 177
46 98 126 139
46 99 15 36
46 100 135 144
46 101 78 102
46 103 97 116
46 101 147 159
46 101 73 85
46 101 38 53
46 100 109 123
46 101 41 60
46 97 127 150
46 96 130 152
46 98 77 94
46 102 136 149
46 106 1 23
46 98 64 86
46 99 84 105
46 99 12 34
46 101 140 158
46 104 57 73
46 102 156 181
46 97 86 112
46 98 66 91
46 101 143 160
46 98 121 138
46 102 91 113
46 104 22 41
46 100 52 70
46 101 4 30
47 102 96 130
47 103 78 107
47 99 154 185
47 100 86 111
47 99 60 84
47 98 106 123
47 95 150 168
47 100 60 73
47 99 73 85
47 96 115 136
47 103 113 124
47 98 88 108
47 104 144 164
47 99 60 73
47 103 77 105
47 100 75 92
47 99 69 83
47 103 4 30
47 98 123 149
47 99 32 50
47 101 7 30
47 99 99 113
47 101 94 112
47 100 152 173
47 97 123 132
47 99 124 135
47 99 126 137
47 102 133 160
47 101 30 35
48 102 117 142
48 101 54 85
48 102 83 104
48 102 161 178
48 103 134 154
48 99 161 191
48 99 49 57
48 99 183 202
48 101 78 96
48 100 81 99
48 99 17 35
48 103 124 144
48 98 51 76
48 101 92 117
48 102 124 154
48 98 87 111
48 99 131 150
48 98 157 172
48 99 13 37
48 98 93 115
48 100 26 50
48 102 71 97
48 103 98 118
48 101 74 96
48 100 119 135
48 99 126 153
48 99 137 159
48 96 168 200
48 101 157 172
49 101 48 76
49 102 162 190
49 99 55 73
49 100 91 106
49 101 85 108
49 95 78 82
49 99 38 60
49 102 175 199
49 102 122 141
49 98 75 93
49 99 49 67
49 97 24 34
49 99 18 37
49 98 18 44
49 101 130 141
49 105 80 110
49 100 66 78
49 99 122 150
49 101 169 183
49 102 43 64
49 100 117 125
49 101 120 139
49 99 122 140
49 98 156 179
49 101 7 30
49 101 154 171
49 98 116 127
49 104 93 107
49 97 177 197
50 105 4 33
50 100 31 43
50 102 65 74
50 104 123 140
50 101 167 192
50 103 197 215
50 97 131 151
50 100 65 86
50 103 79 96
50 101 172 183
50 101 168 200
50 98 42 46
50 97 161 173
50 99 187 210
50 100 89 117
50 103 103 126
50 99 39 61
50 102 181 194
50 99 178 198
50 101 183 191
50 100 26 43
50 97 96 118
50 101 54 79
50 99 182 189
50 96 170 192
50 101 193 214
50 101 68 103
50 100 5 23
50 103 4 16
50 99 215 232
50 99 13 30
50 98 204 216
51 96 67 93
51 100 90 105
51 100 161 168
51 101 26 43
51 99 36 69
51 100 55 76
51 98 82 95
51 99 164 180
51 96 7 23
51 98 166 183
51 101 41 77
51 101 92 108
51 102 100 117
51 98 158 180
51 99 136 159
51 98 149 175
51 100 42 66
51 97 22 46
51 102 64 85
51 101 178 194
51 100 17 33
51 100 150 164
51 99 120 148
51 99 78 106
51 102 105 125
51 101 40 65
51 98 83 102
51 98 157 182
51 104 78 94
51 99 166 185
52 99 99 116
52 102 146 173
52 99 152 179
52 97 113 135
52 97 35 50
52 102 165 183
52 101 106 123
52 102 23 39
52 100 134 147
52 101 69 89
52 99 154 165
52 98 136 160
52 101 116 133
52 99 54 80
52 100 150 173
52 100 66 87
52 101 97 111
52 104 178 200
52 99 137 161
52 98 69 88
52 105 112 135
52 97 83 92
52 97 146 175
52 102 37 55
52 100 12 22
52 99 174 199
52 96 81 98
52 100 180 198
52 105 74 87
52 99 23 45
52 99 60 75
52 98 133 148
52 102 138 152
52 102 9 22
52 101 96 123
53 96 105 130
53 99 65 94
53 99 19 39
53 99 33 54
53 100 132 151
53 98 174 192
53 99 49 63
53 101 44 68
53 101 98 111
53 98 141 156
53 99 143 162
53 103 101 124
53 97 7 26
53 101 167 188
53 102 42 58
53 98 112 129
53 100 133 148
53 99 112 137
53 101 51 81
53 101 100 105
53 97 143 164
53 101 12 28
53 103 104 123
53 101 99 111
53 100 17 49
53 105 125 146
53 101 95 116
54 100 45 58
54 101 96 123
54 99 141 158
54 100 133 137
54 100 109 128
54 98 196 199
54 100 173 196
54 99 163 183
54 101 115 142
54 99 90 109
54 100 151 172
54 99 97 117
54 102 126 139
54 101 61 80
54 98 48 67
54 96 1 19
54 98 174 196
54 101 185 207
54 102 137 158
54 101 93 121
54 103 70 94
54 101 167 178
54 98 184 200
54 99 3 26
54 99 147 169
54 99 149 169
54 101 133 154
54 101 53 71
54 103 46 68
54 100 115 135
54 102 177 202
55 98 31 57
55 101 20 34
55 101 20 40
55 103 89 114
55 99 59 80
55 100 150 170
55 98 124 142
55 100 91 108
55 101 91 119
55 99 140 164
55 99 69 79
55 100 69 85
55 99 11 31
55 104 76 100
55 100 12 30
55 100 51 65
55 101 42 69
55 105 158 180
55 100 136 158
55 100 28 47
55 103 141 156
55 98 148 170
55 102 154 172
55 99 78 102
55 98 139 157
55 101 154 179
55 95 154 163
55 102 113 136
55 100 116 135
55 100 69 87
56 102 0 15
56 99 124 145
56 99 183 197
56 99 114 121
56 100 60 85
56 99 24 48
56 100 6 30
56 103 96 110
56 99 150 181
56 101 182 198
56 101 84 106
56 100 68 95
56 97 27 60
56 95 111 134
56 97 10 19
56 97 3 15
56 98 152 175
56 100 183 191
56 101 29 46
56 102 16 45
56 101 95 125
56 102 189 204
56 100 147 155
56 102 128 145
56 102 61 88
57 99 150 167
57 101 30 59
57 102 108 135
57 101 90 123
57 98 68 84
57 99 151 173
57 98 140 163
57 101 166 185
57 99 159 171
57 99 84 108
57 103 147 161
57 102 93 110
57 101 65 82
57 101 105 116
57 97 177 199
57 96 90 106
57 99 73 91
57 102 78 90
57 102 2 21
57 101 176 199
57 99 113 126
57 101 32 50
57 100 84 107
57 98 121 137
57 98 63 74
57 102 39 64
57 101 65 81
57 104 53 78
57 103 46 61
57 100 106 118
57 101 97 127
58 98 90 110
58 98 127 146
58 96 186 203
58 100 156 183
58 101 174 186
58 97 168 185
58 101 51 75
58 100 98 118
58 99 75 95
58 102 178 187
58 104 98 121
58 100 188 201
58 100 43 56
58 96 105 128
58 101 41 69
58 102 8 26
58 98 147 161
58 100 14 40
58 97 90 99
58 96 40 53
58 100 163 188
58 98 174 202
58 101 27 34
58 97 53 70
58 101 72 92
58 104 184 198
58 97 7 18
58 99 132 157
58 97 71 92
58 97 104 126
59 99 177 197
59 99 17 41
59 101 140 159
59 101 17 42
59 101 157 174
59 99 74 98
59 104 151 169
59 101 94 108
59 102 1 18
59 98 104 138
59 98 38 60
59 101 174 192
59 101 10 34
59 104 40 60
59 101 133 151
59 102 181 189
59 101 137 166
59 102 174 183
59 97 139 154
59 104 20 42
59 97 164 181
59 101 187 198
59 101 177 199
59 100 179 207
59 100 12 34
59 102 187 202
59 102 146 168
59 101 90 111
59 100 67 81
59 100 138 164
60 101 28 52
60 102 100 123
60 100 130 152
60 96 143 170
60 101 153 168
60 101 49 71
60 101 45 67
60 96 52 79
60 99 140 167
60 97 75 92
60 103 79 82
60 99 110 134
60 99 138 154
60 100 24 43
60 100 118 139
60 99 17 34
60 100 153 178
60 98 158 172
60 99 89 112
60 97 25 46
60 102 20 30
60 97 48 71
60 101 42 55
61 103 90 114
61 100 60 82
61 101 20 34
61 99 52 79
61 101 118 133
61 101 32 55
61 97 16 37
61 101 88 110
61 101 120 137
61 99 13 31
61 98 96 106
61 101 3 17
61 98 23 36
61 99 88 109
61 98 48 67
61 98 24 46
61 98 113 134
61 98 99 112
61 101 63 81
61 103 73 99
61 96 144 157
61 98 94 114
61 96 35 49
61 100 30 56
61 104 155 165
61 102 136 160
62 97 75 97
62 101 20 30
62 98 161 185
62 100 180 194
62 100 78 99
62 97 173 190
62 98 25 44
62 101 103 127
62 102 136 161
62 105 143 163
62 101 133 162
62 100 50 77
62 102 60 74
62 99 38 53
62 99 43 65
62 96 152 167
62 97 48 68
62 100 170 188
62 101 2 20
62 101 103 111
62 101 32 52
62 98 141 164
62 102 135 151
62 102 69 98
62 102 118 141
62 99 73 96
62 101 155 177
63 100 69 88
63 98 29 42
63 102 82 97
63 98 56 78
63 98 87 103
63 102 1 27
63 99 48 56
63 98 140 146
63 100 75 90
63 95 2 29
63 98 71 100
63 102 137 158
63 99 54 63
63 100 124 136
63 103 141 168
63 99 98 124
63 99 144 168
63 103 153 168
63 101 96 119
63 103 15 35
63 100 136 156
63 98 129 144
63 101 107 116
63 100 21 34
63 99 26 50
63 102 147 172
63 102 103 112
63 96 74 91
63 100 73 82
63 98 74 98
64 101 142 172
64 98 109 128
64 101 43 61
64 97 8 31
64 99 95 120
64 99 118 140
64 101 10 25
64 100 97 115
64 101 100 118
64 99 26 48
64 102 82 108
64 97 162 174
64 99 145 167
64 100 53 66
64 101 25 51
64 102 39 59
64 96 112 135
64 99 115 138
64 97 122 143
64 100 81 98
64 99 56 85
64 102 42 74
64 99 156 172
64 100 144 162
64 98 123 141
64 100 6 32
64 101 51 62
65 97 105 126
65 95 174 186
65 101 33 45
65 97 128 155
65 99 26 49
65 100 148 170
65 101 161 180
65 102 112 138
65 98 97 117
65 98 117 143
65 100 5 26
65 101 133 143
65 99 120 130
65 104 165 190
65 97 165 188
65 99 69 83
65 99 150 157
65 102 143 164
65 99 172 198
65 106 65 82
65 100 78 99
65 100 58 82
65 101 62 79
65 102 90 111
65 99 51 66
65 104 29 45
65 99 153 169
65 103 123 142
65 96 81 100
65 99 181 200
65 100 188 200
66 99 127 160
66 103 139 141
66 101 62 89
66 99 108 128
66 102 98 119
66 102 149 174
66 99 146 168
66 103 149 172
66 103 29 51
66 99 70 95
66 98 166 184
66 99 104 116
66 102 117 135
66 101 163 174
66 103 47 74
66 98 61 84
66 99 167 183
66 100 100 129
66 100 42 66
66 101 170 171
66 103 101 128
66 100 83 102
66 101 65 82
66 98 97 125
66 99 158 177
66 102 79 90
66 104 23 42
66 100 23 46
66 102 40 56
66 100 84 114
66 100 128 157
67 97 99 115
67 97 70 95
67 102 153 172
67 98 137 152
67 102 21 40
67 102 57 76
67 99 117 133
67 95 20 35
67 102 41 53
67 99 11 26
67 99 19 29
67 98 41 69
67 102 109 124
67 99 98 109
67 101 88 111
67 101 105 136
67 103 94 120
67 102 101 124
67 99 98 117
67 102 25 48
67 101 156 176
67 98 141 163
67 97 74 98
67 101 72 91
67 99 59 79
68 102 60 84
68 100 136 156
68 100 58 84
68 100 130 153
68 100 118 141
68 99 138 176
68 98 67 89
68 97 133 156
68 99 4 25
68 100 154 171
68 100 0 16
68 104 91 106
68 99 156 173
68 101 48 64
68 101 101 118
68 98 76 100
68 99 22 30
68 99 131 145
68 104 125 153
68 101 159 182
68 98 124 147
68 102 153 168
68 100 53 75
68 101 125 146
68 101 108 114
68 103 5 25
68 102 3 32
68 97 9 35
68 98 31 50
68 99 95 126
69 100 169 186
69 100 48 77
69 100 3 14
69 95 67 86
69 101 52 74
69 100 4 27
69 99 1 19
69 101 178 193
69 100 24 46
69 95 95 122
69 101 132 148
69 101 172 194
69 98 64 83
69 101 18 35
69 95 173 179
69 99 142 166
69 101 76 103
69 100 79 98
69 97 64 82
69 97 153 167
69 101 137 160
69 98 186 198
69 103 14 35
69 100 83 103
69 102 186 205
69 95 14 31
69 102 121 134
69 102 183 209
69 101 129 146
69 100 71 84
69 102 75 92
69 99 91 114
70 98 36 44
70 100 44 64
70 99 41 67
70 95 107 117
70 97 98 109
70 101 125 144
70 101 23 37
70 97 111 141
70 103 18 35
70 99 104 119
70 98 55 89
70 102 104 126
70 99 119 128
70 100 137 157
70 99 18 42
70 104 15 32
70 98 124 137
70 102 14 34
70 100 110 141
70 100 57 82
70 103 49 77
70 100 15 42
70 99 137 150
70 101 92 109
70 101 74 87
70 98 111 141
70 100 99 127
70 99 114 132
70 101 93 116
70 96 32 52
70 101 26 46
70 101 3 15
70 99 0 15
70 100 46 71
71 98 12 20
71 101 64 86
71 100 84 106
71 98 18 35
71 100 84 115
71 101 81 101
71 101 75 99
71 99 159 185
71 103 44 77
71 101 134 140
71 100 70 81
71 102 15 39
71 101 156 174
71 102 128 145
71 100 36 53
71 102 142 161
71 100 23 33
71 99 33 48
71 100 107 128
71 98 35 52
71 99 191 200
71 99 163 187
71 101 142 163
71 99 120 134
71 98 112 140
71 100 153 184
71 102 21 40
71 100 62 81
71 101 147 160
71 102 15 30
71 100 35 53
71 99 49 73
71 98 91 114
72 103 166 186
72 99 163 185
72 97 151 166
72 103 199 217
72 99 171 190
72 99 177 204
72 99 165 182
72 96 11 25
72 101 27 45
72 100 70 88
72 101 71 84
72 100 190 205
72 103 121 142
72 103 103 124
72 102 183 202
72 100 108 137
72 100 34 48
72 99 5 20
72 99 101 119
72 101 57 84
72 100 154 166
72 100 178 189
72 99 8 26
72 100 93 118
72 99 193 218
72 102 138 158
72 102 151 163
72 96 11 27
73 100 74 97
73 97 72 89
73 99 20 33
73 100 5 24
73 104 94 117
73 101 212 224
73 103 48 64
73 101 172 188
73 103 69 94
73 98 166 185
73 99 130 143
73 103 127 137
73 104 138 161
73 100 46 71
73 99 22 33
73 99 143 167
73 98 98 123
73 103 26 53
73 98 184 200
73 100 174 193
73 100 160 174
73 99 180 198
73 101 49 85
73 99 122 123
73 100 102 114
73 105 154 176
74 104 80 99
74 101 167 189
74 98 77 86
74 97 191 207
74 101 151 177
74 101 120 145
74 98 103 122
74 98 181 200
74 99 126 149
74 101 71 90
74 99 90 104
74 100 64 86
74 100 190 204
74 97 92 107
74 105 58 74
74 101 32 60
74 99 104 118
74 101 18 43
74 102 163 184
74 97 9 25
74 99 67 81
74 99 49 86
74 100 14 35
74 99 63 85
74 103 108 124
74 104 168 182
74 97 9 17
74 97 64 76
75 100 53 80
75 101 65 96
75 102 157 168
75 99 94 113
75 98 89 104
75 102 18 30
75 100 106 118
75 99 95 97
75 98 83 101
75 102 146 169
75 100 103 125
75 100 112 135
75 102 152 169
75 98 40 63
75 104 64 75
75 102 142 161
75 100 65 85
75 100 130 151
75 103 28 43
75 100 100 125
75 101 12 45
75 101 149 164
75 99 43 54
75 101 28 48
75 96 116 123
75 96 168 187
75 101 125 150
75 101 118 138
75 100 121 137
75 100 4 15
75 100 45 69
75 102 163 166
75 100 121 146
76 101 103 125
76 102 182 210
76 101 119 132
76 102 153 163
76 98 47 64
76 101 102 122
76 103 41 66
76 97 3 20
76 102 105 124
76 97 98 117
76 100 111 129
76 98 200 227
76 100 15 31
76 98 48 62
76 102 46 61
76 98 13 35
76 97 178 199
76 99 163 182
76 100 19 38
76 100 101 124
76 97 107 128
76 101 4 21
76 99 165 188
76 106 18 30
76 97 177 184
76 99 183 201
76 99 158 171
76 103 86 105
76 101 82 110
76 100 64 99
76 102 48 63
76 98 39 54
77 101 201 226
77 104 64 83
77 101 30 49
77 98 181 199
77 98 39 52
77 99 167 181
77 99 59 68
77 98 94 110
77 104 183 198
77 101 109 131
77 100 103 127
77 97 154 170
77 102 51 62
77 99 185 205
77 97 120 142
77 99 60 81
77 98 157 174
77 103 118 125
77 101 32 44
77 102 170 195
77 101 190 199
77 99 169 190
77 102 140 163
77 97 139 151
77 99 148 176
77 102 125 149
77 99 178 195
77 96 188 207
77 101 83 102
77 95 106 112
77 99 122 134
77 99 144 171
77 101 164 190
77 103 126 144
77 102 87 108
77 101 26 39
78 99 39 59
78 98 12 37
78 99 125 137
78 101 176 182
78 98 53 77
78 103 62 80
78 100 152 172
78 97 74 91
78 101 87 118
78 96 85 106
78 99 141 161
78 101 150 170
78 98 130 152
78 101 34 58
78 101 6 35
78 100 167 184
78 100 66 89
78 101 41 65
78 101 161 178
78 102 101 111
78 100 26 51
78 97 161 175
78 98 47 54
78 98 48 68
78 100 157 171
78 95 24 45
78 102 85 112
78 102 95 102
78 99 102 124
78 99 171 191
79 100 157 180
79 101 187 203
79 100 196 207
79 98 174 190
79 96 198 216
79 100 117 126
79 99 171 212
79 99 59 74
79 102 110 131
79 104 203 221
79 100 37 64
79 100 170 190
79 101 161 186
79 101 19 41
79 101 201 219
79 99 55 72
79 100 2 17
79 99 109 130
79 105 156 182
79 100 153 178
79 99 76 89
79 98 53 74
79 104 74 110
79 96 178 196
79 99 122 142
79 105 45 72
79 102 213 230
79 99 151 166
79 99 132 144
79 97 11 24
79 99 56 72
79 96 66 89
79 102 87 110
79 101 124 140
79 103 111 138
79 102 95 117
80 100 1 19
80 102 136 154
80 98 0 4
80 102 80 102
80 101 90 109
80 99 119 139
80 96 80 96
80 98 62 79
80 101 123 146
80 101 93 107
80 99 119 155
80 101 51 69
80 100 96 116
80 100 156 176
80 97 14 36
80 100 103 123
80 97 139 162
80 98 17 41
80 100 158 175
80 104 90 118
80 103 59 87
80 99 170 182
80 99 10 43
80 103 73 84
80 100 39 58
80 101 45 55
81 102 95 111
81 97 138 163
81 101 105 127
81 102 195 213
81 99 144 164
81 101 188 200
81 98 64 84
81 99 71 90
81 95 76 96
81 100 95 114
81 102 164 184
81 99 163 176
81 97 43 60
81 99 92 113
81 97 67 89
81 102 162 178
81 100 100 115
81 103 153 167
81 101 176 196
81 102 100 118
81 98 140 163
81 98 164 187
81 102 72 83
81 99 173 193
81 99 129 145
81 100 128 145
82 98 158 188
82 99 12 23
82 100 42 64
82 98 158 180
82 98 156 168
82 98 112 142
82 99 155 175
82 100 1 21
82 100 86 112
82 99 43 61
82 97 27 54
82 96 41 60
82 102 187 193
82 101 147 169
82 99 13 27
82 100 94 118
82 102 83 100
82 104 120 137
82 100 87 108
82 100 137 149
82 100 175 198
82 99 204 215
82 102 164 179
82 103 95 112
82 100 27 48
83 101 93 113
83 100 4 30
83 101 164 190
83 99 105 118
83 98 98 116
83 100 146 160
83 101 77 94
83 103 0 16
83 103 77 108
83 99 70 94
83 97 166 180
83 96 63 86
83 98 84 103
83 98 17 28
83 100 103 115
83 102 138 151
83 100 114 137
83 101 154 179
83 104 89 107
83 100 19 45
84 100 8 35
84 105 56 69
84 100 48 67
84 104 134 156
84 101 64 75
84 100 67 82
84 98 3 15
84 98 163 180
84 103 81 107
84 99 148 170
84 101 40 65
84 100 89 116
84 103 150 174
84 104 127 151
84 102 44 72
84 99 50 66
84 102 5 10
84 99 63 87
84 102 37 58
84 99 129 151
84 100 127 151
84 102 108 126
84 99 25 40
84 96 47 66
84 99 186 206
85 100 101 131
85 104 72 85
85 99 73 90
85 102 159 184
85 98 113 140
85 99 124 147
85 100 72 89
85 102 77 103
85 101 46 57
85 98 189 209
85 99 37 51
85 102 177 196
85 100 192 205
85 96 185 202
85 102 172 178
85 104 75 98
85 103 122 144
85 100 192 203
85 96 5 18
85 102 173 196
85 97 104 117
85 102 72 88
85 102 67 87
85 100 169 191
85 101 4 23
85 100 111 124
85 101 134 147
85 97 138 153
85 99 44 64
85 102 111 143
85 100 16 39
85 100 38 53
85 103 160 179
85 101 106 121
86 99 208 211
86 101 178 198
86 100 110 123
86 102 35 59
86 101 31 52
86 97 51 81
86 99 197 217
86 101 156 173
86 99 190 216
86 102 147 175
86 101 121 140
86 100 97 115
86 100 189 211
86 100 42 68
86 101 156 179
86 99 70 89
86 102 152 170
86 99 87 105
86 99 49 68
86 101 152 172
86 97 164 190
86 100 2 23
86 100 140 163
86 98 51 60
86 101 104 122
86 98 125 136
86 98 104 126
87 100 66 83
87 102 64 84
87 100 166 191
87 102 98 124
87 102 110 129
87 98 7 24
87 97 173 189
87 99 84 92
87 100 139 157
87 100 206 211
87 98 179 191
87 93 156 161
87 101 48 65
87 100 35 48
87 100 4 35
87 103 159 182
87 99 4 21
87 100 170 185
87 95 7 43
87 101 118 136
87 100 165 187
87 98 128 137
87 100 176 193
87 98 182 201
87 95 81 106
87 97 6 24
87 102 168 181
87 101 9 32
87 99 139 150
87 99 58 92
87 101 129 148
87 103 1 20
87 103 149 164
88 98 4 19
88 100 149 164
88 100 78 111
88 101 78 94
88 96 136 157
88 99 188 201
88 100 29 53
88 100 129 154
88 99 21 44
88 99 173 192
88 100 179 202
88 98 16 36
88 99 18 48
88 106 85 104
88 99 169 187
88 101 151 180
88 99 55 80
88 101 160 175
88 102 64 85
88 100 162 181
88 97 125 146
88 99 39 63
88 101 143 158
88 97 195 202
88 104 59 78
88 99 187 206
88 101 177 186
88 100 36 52
88 100 138 160
88 99 4 18
89 100 10 37
89 99 68 93
89 101 70 87
89 102 71 94
89 99 152 161
89 103 115 142
89 100 60 80
89 100 119 144
89 100 46 58
89 100 124 148
89 95 32 48
89 99 47 65
89 99 83 106
89 96 128 146
89 99 49 69
89 102 0 11
89 101 57 84
89 100 29 41
89 100 36 59
89 103 73 94
89 96 131 143
89 102 97 115
89 98 51 65
89 102 35 63
89 101 91 110
89 97 107 120
89 101 116 130
89 99 139 152
89 104 71 86
89 101 118 146
89 103 69 85
89 96 89 109
90 100 101 117
90 102 182 192
90 103 33 58
90 99 9 32
90 98 31 55
90 102 27 45
90 98 146 162
90 102 120 129
90 100 65 94
90 98 159 183
90 101 58 76
90 99 149 181
90 96 27 44
90 101 35 51
90 98 114 147
90 99 122 150
90 101 25 39
90 101 162 176
90 103 37 50
90 95 35 65
90 98 50 62
90 98 41 62
90 102 134 152
90 101 11 35
90 101 148 167
90 96 54 70
90 103 149 172
90 99 38 51
90 99 164 184
90 99 70 83
91 102 14 34
91 98 8 35
91 102 115 127
91 98 129 148
91 100 145 154
91 100 47 63
91 102 13 30
91 97 4 38
91 102 86 111
91 98 12 35
91 99 175 190
91 100 130 150
91 98 99 119
91 100 157 181
91 104 44 76
91 103 157 174
91 104 160 169
91 99 151 169
91 100 70 90
91 98 73 87
91 103 175 195
91 100 35 57
91 102 87 100
91 98 124 144
91 99 12 31
91 98 164 184
92 98 41 67
92 109 1 30
92 101 167 185
92 103 197 212
92 100 27 48
92 102 171 199
92 100 41 59
92 98 174 194
92 103 203 218
92 99 120 135
92 100 147 169
92 103 11 26
92 102 91 115
92 100 36 53
92 96 180 187
92 102 106 138
92 101 9 34
92 99 25 41
92 96 185 204
92 103 202 214
92 98 20 42
92 103 105 121
92 103 78 91
92 99 140 153
92 100 101 119
92 102 21 41
92 102 207 213
92 102 140 161
92 102 54 78
92 99 81 104
93 103 148 155
93 96 23 43
93 98 121 154
93 97 7 15
93 102 75 107
93 101 142 159
93 103 87 121
93 102 153 166
93 100 11 22
93 101 78 102
93 99 159 177
93 100 134 148
93 101 140 150
93 101 126 145
93 100 150 162
93 102 87 99
93 101 76 107
93 98 58 86
93 101 154 184
93 99 94 121
93 100 94 119
93 100 121 135
93 103 7 28
93 103 154 175
93 101 150 169
94 98 138 157
94 98 41 67
94 102 62 88
94 98 132 148
94 100 67 89
94 102 14 31
94 102 4 26
94 96 51 79
94 97 134 155
94 100 55 82
94 103 59 92
94 100 121 137
94 99 1 26
94 101 11 26
94 101 18 31
94 103 50 63
94 100 20 27
94 100 158 173
94 98 130 147
94 102 75 96
94 99 20 45
94 100 14 33
94 100 73 107
94 99 17 38
94 98 94 113
94 100 40 61
94 102 84 111
94 98 98 119
94 101 100 126
94 101 128 153
94 103 121 140
94 101 139 158
95 98 9 23
95 104 74 99
95 100 166 183
95 99 32 48
95 102 15 37
95 101 135 147
95 100 155 162
95 100 5 24
95 98 206 230
95 100 198 224
95 101 16 40
95 103 144 158
95 102 127 152
95 103 125 146
95 99 199 220
95 102 130 145
95 102 175 195
95 99 51 71
95 103 94 103
95 101 13 37
95 99 90 97
95 99 155 179
95 103 177 191
95 97 146 181
95 99 62 84
95 99 115 137
95 101 36 59
95 100 60 81
95 103 202 218
95 98 97 115
95 103 179 198
95 102 117 140
95 101 42 64
96 104 5 20
96 99 12 21
96 100 35 57
96 99 107 117
96 99 177 189
96 101 129 152
96 100 38 54
96 101 95 108
96 102 158 182
96 99 90 109
96 98 185 205
96 100 21 50
96 97 2 18
96 100 176 201
96 101 147 165
96 101 97 107
96 99 166 193
96 101 183 197
96 100 63 76
96 98 150 170
96 100 93 110
96 101 138 171
96 101 74 94
96 99 175 205
96 103 134 157
96 103 41 62
96 98 161 184
96 101 188 202
97 100 86 109
97 98 35 59
97 98 15 35
97 102 125 147
97 101 85 107
97 96 140 160
97 96 51 62
97 100 94 120
97 101 94 116
97 102 62 74
97 97 120 143
97 101 123 145
97 100 82 97
97 99 108 124
97 101 71 96
97 99 29 47
97 98 73 91
97 95 89 107
97 101 45 47
97 98 138 156
97 101 122 153
97 100 55 83
97 98 144 162
97 100 59 78
97 100 106 114
97 99 162 180
97 99 39 51
97 97 154 169
98 101 38 66
98 99 68 95
98 101 114 138
98 96 44 62
98 97 145 172
98 98 183 206
98 100 29 42
98 97 108 125
98 100 9 36
98 99 84 105
98 100 98 121
98 104 104 131
98 100 179 184
98 101 155 169
98 99 172 192
98 99 23 35
98 97 52 77
98 102 160 187
98 101 51 66
98 101 37 61
98 99 27 38
98 99 188 204
98 99 123 137
98 96 112 136
98 102 110 121
98 98 177 196
98 100 166 189
98 98 31 45
98 100 153 177
98 102 165 184
98 98 31 48
98 100 108 132
98 102 155 180
98 104 153 162
98 99 118 136
98 99 174 193
99 97 155 172
99 101 75 108
99 104 46 57
99 94 74 86
99 100 114 133
99 103 79 91
99 100 96 117
99 102 163 188
99 96 1 24
99 98 147 166
99 101 59 77
99 100 53 80
99 101 6 23
99 98 75 93
99 101 168 186
99 104 52 71
99 104 53 71
99 102 120 148
99 99 2 22
99 99 73 100
99 102 153 172
99 101 38 55
99 98 132 151
99 99 58 81
99 101 64 82
99 99 2 24
99 98 78 89
99 98 8 24
99 100 155 175
99 97 16 36
99 97 79 101
99 97 2 25
